D:\Software Development\OrderProject\src\main\java\com\sakda\orderproject\Product.java
D:\Software Development\OrderProject\src\main\java\com\sakda\orderproject\ProductListPanel.java
D:\Software Development\OrderProject\src\main\java\com\sakda\orderproject\OrderItem.java
D:\Software Development\OrderProject\src\main\java\com\sakda\orderproject\ProductPanel.java
D:\Software Development\OrderProject\src\main\java\com\sakda\orderproject\SellPanel.java
D:\Software Development\OrderProject\src\main\java\com\sakda\orderproject\OrderPanel.java
D:\Software Development\OrderProject\src\main\java\com\sakda\orderproject\OnBuyProductListener.java
D:\Software Development\OrderProject\src\main\java\com\sakda\orderproject\OrderFrame.java
